{
  "photos": {
    "page": 1,
    "pages": 54108,
    "perpage": 100,
    "total": "5410731",
    "photo": [
      {
        "id": "14561150953",
        "owner": "119678691@N02",
        "secret": "bac0b0aef0",
        "server": "5473",
        "farm": 6,
        "title": "people",
        "ispublic": 1,
        "isfriend": 0,
        "isfamily": 0
      },
      {
        "id": "5060554742",
        "owner": "35112337@N05",
        "secret": "514b145b61",
        "server": "4109",
        "farm": 5,
        "title": "people",
        "ispublic": 1,
        "isfriend": 0,
        "isfamily": 0
      },
      {
        "id": "2876108276",
        "owner": "68458516@N00",
        "secret": "c7bf1fa81a",
        "server": "3286",
        "farm": 4,
        "title": "Ueno Zoo",
        "ispublic": 1,
        "isfriend": 0,
        "isfamily": 0
      },
      {
        "id": "5826573482",
        "owner": "22519875@N08",
        "secret": "b4c288dc40",
        "server": "5032",
        "farm": 6,
        "title": "people",
        "ispublic": 1,
        "isfriend": 0,
        "isfamily": 0
      },
      {
        "id": "234358923",
        "owner": "71753457@N00",
        "secret": "aeb7026ec9",
        "server": "81",
        "farm": 1,
        "title": "My eye",
        "ispublic": 1,
        "isfriend": 0,
        "isfamily": 0
      },
      {
        "id": "4912089169",
        "owner": "12252801@N00",
        "secret": "a9e68b92d3",
        "server": "4141",
        "farm": 5,
        "title": "People",
        "ispublic": 1,
        "isfriend": 0,
        "isfamily": 0
      },
      {
        "id": "7051273279",
        "owner": "72708521@N02",
        "secret": "465e893e25",
        "server": "7109",
        "farm": 8,
        "title": "Portrait",
        "ispublic": 1,
        "isfriend": 0,
        "isfamily": 0
      },
      {
        "id": "5587893915",
        "owner": "47798300@N00",
        "secret": "72d0a9c8e6",
        "server": "5190",
        "farm": 6,
        "title": "People",
        "ispublic": 1,
        "isfriend": 0,
        "isfamily": 0
      },
      {
        "id": "5588422174",
        "owner": "47798300@N00",
        "secret": "19397f173d",
        "server": "5068",
        "farm": 6,
        "title": "People",
        "ispublic": 1,
        "isfriend": 0,
        "isfamily": 0
      },
      {
        "id": "2731007097",
        "owner": "28640178@N05",
        "secret": "1e93df0581",
        "server": "3010",
        "farm": 4,
        "title": "Eve in high school",
        "ispublic": 1,
        "isfriend": 0,
        "isfamily": 0
      },
      {
        "id": "44206265",
        "owner": "71753457@N00",
        "secret": "f9df312f18",
        "server": "33",
        "farm": 1,
        "title": "HannahPovey Eye 01",
        "ispublic": 1,
        "isfriend": 0,
        "isfamily": 0
      },
      {
        "id": "15349657352",
        "owner": "40642065@N06",
        "secret": "c83c1970fb",
        "server": "2943",
        "farm": 3,
        "title": "Thailand Tourism Angel | KLPF2014",
        "ispublic": 1,
        "isfriend": 0,
        "isfamily": 0
      },
      {
        "id": "6392484469",
        "owner": "10110263@N03",
        "secret": "73541ffb3b",
        "server": "7031",
        "farm": 8,
        "title": "Istanbul People",
        "ispublic": 1,
        "isfriend": 0,
        "isfamily": 0
      },
      {
        "id": "3937066592",
        "owner": "29409462@N08",
        "secret": "5699842392",
        "server": "2589",
        "farm": 3,
        "title": "Blackpool People",
        "ispublic": 1,
        "isfriend": 0,
        "isfamily": 0
      },
      {
        "id": "26724768090",
        "owner": "31730451@N03",
        "secret": "7fd44c18f0",
        "server": "7524",
        "farm": 8,
        "title": "Kaylor Serenity",
        "ispublic": 1,
        "isfriend": 0,
        "isfamily": 0
      },
      {
        "id": "9243814710",
        "owner": "29786107@N05",
        "secret": "96d8766eec",
        "server": "7386",
        "farm": 8,
        "title": "Eyes",
        "ispublic": 1,
        "isfriend": 0,
        "isfamily": 0
      },
      {
        "id": "6931889506",
        "owner": "39746512@N05",
        "secret": "92cafec675",
        "server": "7124",
        "farm": 8,
        "title": "anonymous people",
        "ispublic": 1,
        "isfriend": 0,
        "isfamily": 0
      },
      {
        "id": "5670411245",
        "owner": "39746512@N05",
        "secret": "db34d0d11d",
        "server": "5101",
        "farm": 6,
        "title": "anonymous people",
        "ispublic": 1,
        "isfriend": 0,
        "isfamily": 0
      },
      {
        "id": "6215216935",
        "owner": "39746512@N05",
        "secret": "189d20ebe4",
        "server": "6120",
        "farm": 7,
        "title": "anonymous people",
        "ispublic": 1,
        "isfriend": 0,
        "isfamily": 0
      },
      {
        "id": "7493890724",
        "owner": "33591211@N04",
        "secret": "a94e9771ef",
        "server": "8290",
        "farm": 9,
        "title": "DSC06698s",
        "ispublic": 1,
        "isfriend": 0,
        "isfamily": 0
      },
      {
        "id": "15585869875",
        "owner": "91492606@N07",
        "secret": "4b7093f306",
        "server": "5608",
        "farm": 6,
        "title": "Portrait B&W",
        "ispublic": 1,
        "isfriend": 0,
        "isfamily": 0
      },
      {
        "id": "13161566643",
        "owner": "9298216@N08",
        "secret": "7a24258a0b",
        "server": "3795",
        "farm": 4,
        "title": "Aldgate: people",
        "ispublic": 1,
        "isfriend": 0,
        "isfamily": 0
      },
      {
        "id": "8691270490",
        "owner": "91873384@N04",
        "secret": "b8e2d0fa3f",
        "server": "7054",
        "farm": 8,
        "title": "antonio_uncle.jpg",
        "ispublic": 1,
        "isfriend": 0,
        "isfamily": 0
      },
      {
        "id": "5783776304",
        "owner": "39746512@N05",
        "secret": "29a6ba0a9e",
        "server": "2606",
        "farm": 3,
        "title": "anonymous people",
        "ispublic": 1,
        "isfriend": 0,
        "isfamily": 0
      },
      {
        "id": "6272896828",
        "owner": "44266179@N08",
        "secret": "4c84339f32",
        "server": "6093",
        "farm": 7,
        "title": "Stacked people",
        "ispublic": 1,
        "isfriend": 0,
        "isfamily": 0
      },
      {
        "id": "15667179503",
        "owner": "35765158@N03",
        "secret": "00a83b33c1",
        "server": "8644",
        "farm": 9,
        "title": "Serafima",
        "ispublic": 1,
        "isfriend": 0,
        "isfamily": 0
      },
      {
        "id": "5130277698",
        "owner": "43158397@N02",
        "secret": "d7a6f2b6dc",
        "server": "4001",
        "farm": 5,
        "title": "Halloween people?",
        "ispublic": 1,
        "isfriend": 0,
        "isfamily": 0
      },
      {
        "id": "5354709559",
        "owner": "55391269@N08",
        "secret": "76782d0a4a",
        "server": "5286",
        "farm": 6,
        "title": "People",
        "ispublic": 1,
        "isfriend": 0,
        "isfamily": 0
      },
      {
        "id": "6392485477",
        "owner": "10110263@N03",
        "secret": "9980b5e567",
        "server": "7001",
        "farm": 8,
        "title": "Istanbul People",
        "ispublic": 1,
        "isfriend": 0,
        "isfamily": 0
      },
      {
        "id": "15926672116",
        "owner": "116261672@N04",
        "secret": "7b67683e10",
        "server": "7467",
        "farm": 8,
        "title": "JustASimpleMan",
        "ispublic": 1,
        "isfriend": 0,
        "isfamily": 0
      },
      {
        "id": "6885708033",
        "owner": "12278984@N02",
        "secret": "799d35a778",
        "server": "7193",
        "farm": 8,
        "title": "Leh people",
        "ispublic": 1,
        "isfriend": 0,
        "isfamily": 0
      },
      {
        "id": "8268008683",
        "owner": "90784784@N08",
        "secret": "0072848aa5",
        "server": "8219",
        "farm": 9,
        "title": "group photos 05",
        "ispublic": 1,
        "isfriend": 0,
        "isfamily": 0
      },
      {
        "id": "8269076712",
        "owner": "90784784@N08",
        "secret": "7149b8f73a",
        "server": "8481",
        "farm": 9,
        "title": "group photos 07",
        "ispublic": 1,
        "isfriend": 0,
        "isfamily": 0
      },
      {
        "id": "4796415400",
        "owner": "47869271@N03",
        "secret": "81aab11cd3",
        "server": "4137",
        "farm": 5,
        "title": "street people",
        "ispublic": 1,
        "isfriend": 0,
        "isfamily": 0
      },
      {
        "id": "3078236834",
        "owner": "9092428@N04",
        "secret": "d55667b817",
        "server": "3143",
        "farm": 4,
        "title": "Felicidade se constrói...",
        "ispublic": 1,
        "isfriend": 0,
        "isfamily": 0
      },
      {
        "id": "16613160186",
        "owner": "40642065@N06",
        "secret": "66a6bf04df",
        "server": "8577",
        "farm": 9,
        "title": "KL Street 2015",
        "ispublic": 1,
        "isfriend": 0,
        "isfamily": 0
      },
      {
        "id": "9407578228",
        "owner": "86014697@N08",
        "secret": "8154564c5d",
        "server": "3694",
        "farm": 4,
        "title": "Happiness",
        "ispublic": 1,
        "isfriend": 0,
        "isfamily": 0
      },
      {
        "id": "15320075156",
        "owner": "126710094@N04",
        "secret": "a0f3734bac",
        "server": "2943",
        "farm": 3,
        "title": "Just cute!",
        "ispublic": 1,
        "isfriend": 0,
        "isfamily": 0
      },
      {
        "id": "9587292434",
        "owner": "56052306@N06",
        "secret": "b3d21fd7ee",
        "server": "3682",
        "farm": 4,
        "title": "Deb",
        "ispublic": 1,
        "isfriend": 0,
        "isfamily": 0
      },
      {
        "id": "9696301792",
        "owner": "62146734@N08",
        "secret": "b4e636dbc8",
        "server": "2869",
        "farm": 3,
        "title": "Barman",
        "ispublic": 1,
        "isfriend": 0,
        "isfamily": 0
      },
      {
        "id": "14689258425",
        "owner": "119678691@N02",
        "secret": "101d467147",
        "server": "5580",
        "farm": 6,
        "title": "Group of teens at the beach",
        "ispublic": 1,
        "isfriend": 0,
        "isfamily": 0
      },
      {
        "id": "19654604",
        "owner": "17155762@N00",
        "secret": "172361c845",
        "server": "14",
        "farm": 1,
        "title": "People",
        "ispublic": 1,
        "isfriend": 0,
        "isfamily": 0
      },
      {
        "id": "4376966239",
        "owner": "46251367@N02",
        "secret": "359da6bc8a",
        "server": "2733",
        "farm": 3,
        "title": "",
        "ispublic": 1,
        "isfriend": 0,
        "isfamily": 0
      },
      {
        "id": "3563989139",
        "owner": "63522147@N00",
        "secret": "7a6fc67c72",
        "server": "2447",
        "farm": 3,
        "title": "R1105166",
        "ispublic": 1,
        "isfriend": 0,
        "isfamily": 0
      },
      {
        "id": "3246804368",
        "owner": "22611472@N02",
        "secret": "1027080744",
        "server": "3495",
        "farm": 4,
        "title": "img_4726.jpg",
        "ispublic": 1,
        "isfriend": 0,
        "isfamily": 0
      },
      {
        "id": "8707559226",
        "owner": "91873384@N04",
        "secret": "c1a8f2eefd",
        "server": "8127",
        "farm": 9,
        "title": "gold",
        "ispublic": 1,
        "isfriend": 0,
        "isfamily": 0
      },
      {
        "id": "5332221113",
        "owner": "20466740@N00",
        "secret": "0ba7840997",
        "server": "5121",
        "farm": 6,
        "title": "pensive",
        "ispublic": 1,
        "isfriend": 0,
        "isfamily": 0
      },
      {
        "id": "8449008755",
        "owner": "73949553@N03",
        "secret": "622a6972b0",
        "server": "8377",
        "farm": 9,
        "title": "people",
        "ispublic": 1,
        "isfriend": 0,
        "isfamily": 0
      },
      {
        "id": "8706440095",
        "owner": "91873384@N04",
        "secret": "88dea2f2ed",
        "server": "8266",
        "farm": 9,
        "title": "melissa-3",
        "ispublic": 1,
        "isfriend": 0,
        "isfamily": 0
      },
      {
        "id": "982139144",
        "owner": "16122620@N00",
        "secret": "ffb1139bd5",
        "server": "1067",
        "farm": 2,
        "title": "csc people",
        "ispublic": 1,
        "isfriend": 0,
        "isfamily": 0
      },
      {
        "id": "3909232359",
        "owner": "35765158@N03",
        "secret": "4861705e94",
        "server": "3516",
        "farm": 4,
        "title": "Koul Trickle",
        "ispublic": 1,
        "isfriend": 0,
        "isfamily": 0
      },
      {
        "id": "8719475884",
        "owner": "56052306@N06",
        "secret": "e53295c8ea",
        "server": "7334",
        "farm": 8,
        "title": "",
        "ispublic": 1,
        "isfriend": 0,
        "isfamily": 0
      },
      {
        "id": "15992674839",
        "owner": "83408836@N02",
        "secret": "9f44537d44",
        "server": "7519",
        "farm": 8,
        "title": "eva_19940114_hiking",
        "ispublic": 1,
        "isfriend": 0,
        "isfamily": 0
      },
      {
        "id": "7493799614",
        "owner": "33591211@N04",
        "secret": "3b2dc90053",
        "server": "7138",
        "farm": 8,
        "title": "DSC06134s",
        "ispublic": 1,
        "isfriend": 0,
        "isfamily": 0
      },
      {
        "id": "15992940057",
        "owner": "83408836@N02",
        "secret": "04e62790c1",
        "server": "8639",
        "farm": 9,
        "title": "eva_19990710_crop",
        "ispublic": 1,
        "isfriend": 0,
        "isfamily": 0
      },
      {
        "id": "9906492376",
        "owner": "30330906@N04",
        "secret": "4a827f2269",
        "server": "7405",
        "farm": 8,
        "title": "Popayan 14",
        "ispublic": 1,
        "isfriend": 0,
        "isfamily": 0
      },
      {
        "id": "3199605387",
        "owner": "63522147@N00",
        "secret": "01ef8cdee5",
        "server": "3082",
        "farm": 4,
        "title": "R1096131",
        "ispublic": 1,
        "isfriend": 0,
        "isfamily": 0
      },
      {
        "id": "6655229355",
        "owner": "35765158@N03",
        "secret": "f13df03352",
        "server": "7012",
        "farm": 8,
        "title": "Die Hammerin",
        "ispublic": 1,
        "isfriend": 0,
        "isfamily": 0
      },
      {
        "id": "6038138246",
        "owner": "35765158@N03",
        "secret": "37d046b351",
        "server": "6066",
        "farm": 7,
        "title": "Kseniy",
        "ispublic": 1,
        "isfriend": 0,
        "isfamily": 0
      },
      {
        "id": "3909232441",
        "owner": "35765158@N03",
        "secret": "673d8f8283",
        "server": "2537",
        "farm": 3,
        "title": "Koul Trickle",
        "ispublic": 1,
        "isfriend": 0,
        "isfamily": 0
      },
      {
        "id": "3600117989",
        "owner": "63522147@N00",
        "secret": "80a8e565b5",
        "server": "3623",
        "farm": 4,
        "title": "R1105560",
        "ispublic": 1,
        "isfriend": 0,
        "isfamily": 0
      },
      {
        "id": "7563497224",
        "owner": "23557463@N05",
        "secret": "b0c7477fe3",
        "server": "7268",
        "farm": 8,
        "title": "People at EuroPython 2012",
        "ispublic": 1,
        "isfriend": 0,
        "isfamily": 0
      },
      {
        "id": "3306839140",
        "owner": "63522147@N00",
        "secret": "f2f4ce4445",
        "server": "3381",
        "farm": 4,
        "title": "R1097429",
        "ispublic": 1,
        "isfriend": 0,
        "isfamily": 0
      },
      {
        "id": "7563501946",
        "owner": "23557463@N05",
        "secret": "fc01493195",
        "server": "7257",
        "farm": 8,
        "title": "People at EuroPython 2012",
        "ispublic": 1,
        "isfriend": 0,
        "isfamily": 0
      },
      {
        "id": "14561870264",
        "owner": "125939301@N02",
        "secret": "6016404499",
        "server": "5586",
        "farm": 6,
        "title": "lucerna-25",
        "ispublic": 1,
        "isfriend": 0,
        "isfamily": 0
      },
      {
        "id": "5790421127",
        "owner": "59252954@N00",
        "secret": "f2b3d5fd0a",
        "server": "2565",
        "farm": 3,
        "title": "Reporters Without Borders | Reporters Sans Frontières",
        "ispublic": 1,
        "isfriend": 0,
        "isfamily": 0
      },
      {
        "id": "16285122995",
        "owner": "62861966@N03",
        "secret": "67d2b943d9",
        "server": "8661",
        "farm": 9,
        "title": "33410_135019989864354_2020265_n",
        "ispublic": 1,
        "isfriend": 0,
        "isfamily": 0
      },
      {
        "id": "8715675967",
        "owner": "56052306@N06",
        "secret": "a17e17205f",
        "server": "7287",
        "farm": 8,
        "title": "",
        "ispublic": 1,
        "isfriend": 0,
        "isfamily": 0
      },
      {
        "id": "8542113629",
        "owner": "34773377@N02",
        "secret": "6f0a538d17",
        "server": "8531",
        "farm": 9,
        "title": "Erik in Drag",
        "ispublic": 1,
        "isfriend": 0,
        "isfamily": 0
      },
      {
        "id": "17288991712",
        "owner": "13462081@N06",
        "secret": "5dd05bb6cd",
        "server": "8761",
        "farm": 9,
        "title": "Street performance #2",
        "ispublic": 1,
        "isfriend": 0,
        "isfamily": 0
      },
      {
        "id": "4480305504",
        "owner": "35765158@N03",
        "secret": "18bed45f11",
        "server": "4028",
        "farm": 5,
        "title": "Thriller, pt.4 / Sima",
        "ispublic": 1,
        "isfriend": 0,
        "isfamily": 0
      },
      {
        "id": "7563499024",
        "owner": "23557463@N05",
        "secret": "f49670c7ff",
        "server": "7110",
        "farm": 8,
        "title": "People at EuroPython 2012",
        "ispublic": 1,
        "isfriend": 0,
        "isfamily": 0
      },
      {
        "id": "8694853248",
        "owner": "91873384@N04",
        "secret": "a6f87d225e",
        "server": "8262",
        "farm": 9,
        "title": "n605109663_1777926_55",
        "ispublic": 1,
        "isfriend": 0,
        "isfamily": 0
      },
      {
        "id": "7563504420",
        "owner": "23557463@N05",
        "secret": "5835e776b4",
        "server": "8291",
        "farm": 9,
        "title": "People at EuroPython 2012",
        "ispublic": 1,
        "isfriend": 0,
        "isfamily": 0
      },
      {
        "id": "9906533494",
        "owner": "30330906@N04",
        "secret": "3f7511f548",
        "server": "5507",
        "farm": 6,
        "title": "Popayan 19",
        "ispublic": 1,
        "isfriend": 0,
        "isfamily": 0
      },
      {
        "id": "9090118607",
        "owner": "35765158@N03",
        "secret": "9b843557fd",
        "server": "2850",
        "farm": 3,
        "title": "Lisa, Paint Cat @ Club der Visionäre",
        "ispublic": 1,
        "isfriend": 0,
        "isfamily": 0
      },
      {
        "id": "7563505546",
        "owner": "23557463@N05",
        "secret": "db0917e439",
        "server": "7276",
        "farm": 8,
        "title": "People at EuroPython 2012",
        "ispublic": 1,
        "isfriend": 0,
        "isfamily": 0
      },
      {
        "id": "5587886445",
        "owner": "47798300@N00",
        "secret": "eef2f2e1ee",
        "server": "5305",
        "farm": 6,
        "title": "People",
        "ispublic": 1,
        "isfriend": 0,
        "isfamily": 0
      },
      {
        "id": "15831891325",
        "owner": "40642065@N06",
        "secret": "99e560b933",
        "server": "7575",
        "farm": 8,
        "title": "Hexagon | Welcoming Christ Concert",
        "ispublic": 1,
        "isfriend": 0,
        "isfamily": 0
      },
      {
        "id": "8579561218",
        "owner": "56052306@N06",
        "secret": "2cbac4a9a6",
        "server": "8376",
        "farm": 9,
        "title": "Catherine",
        "ispublic": 1,
        "isfriend": 0,
        "isfamily": 0
      },
      {
        "id": "14510582768",
        "owner": "61166315@N04",
        "secret": "2db6a44ea7",
        "server": "3913",
        "farm": 4,
        "title": "At the village festival",
        "ispublic": 1,
        "isfriend": 0,
        "isfamily": 0
      },
      {
        "id": "213720179",
        "owner": "52923129@N00",
        "secret": "88706eec7e",
        "server": "98",
        "farm": 1,
        "title": "IRC People, Ivy, Doly and Jenny",
        "ispublic": 1,
        "isfriend": 0,
        "isfamily": 0
      },
      {
        "id": "7056687081",
        "owner": "55231259@N00",
        "secret": "f20ec6d3f6",
        "server": "7271",
        "farm": 8,
        "title": "Subway People",
        "ispublic": 1,
        "isfriend": 0,
        "isfamily": 0
      },
      {
        "id": "6213284726",
        "owner": "14420767@N02",
        "secret": "55676e1c42",
        "server": "6055",
        "farm": 7,
        "title": "People",
        "ispublic": 1,
        "isfriend": 0,
        "isfamily": 0
      },
      {
        "id": "14607193408",
        "owner": "125339497@N03",
        "secret": "08590fa0ff",
        "server": "2906",
        "farm": 3,
        "title": "Easy",
        "ispublic": 1,
        "isfriend": 0,
        "isfamily": 0
      },
      {
        "id": "387086466",
        "owner": "59911223@N00",
        "secret": "5ec139b3f5",
        "server": "173",
        "farm": 1,
        "title": "People in Portugal 02",
        "ispublic": 1,
        "isfriend": 0,
        "isfamily": 0
      },
      {
        "id": "3034408431",
        "owner": "41718202@N00",
        "secret": "2bf948abe2",
        "server": "3198",
        "farm": 4,
        "title": "Irony",
        "ispublic": 1,
        "isfriend": 0,
        "isfamily": 0
      },
      {
        "id": "8146470686",
        "owner": "56052306@N06",
        "secret": "4d151e97b4",
        "server": "8191",
        "farm": 9,
        "title": "Randie",
        "ispublic": 1,
        "isfriend": 0,
        "isfamily": 0
      },
      {
        "id": "14399796670",
        "owner": "44048553@N03",
        "secret": "d4cf465abd",
        "server": "5487",
        "farm": 6,
        "title": "Gente",
        "ispublic": 1,
        "isfriend": 0,
        "isfamily": 0
      },
      {
        "id": "14947971329",
        "owner": "36520720@N04",
        "secret": "d6af5832d9",
        "server": "5566",
        "farm": 6,
        "title": "_MG_8327",
        "ispublic": 1,
        "isfriend": 0,
        "isfamily": 0
      },
      {
        "id": "75288585",
        "owner": "98624608@N00",
        "secret": "732f28e6ed",
        "server": "37",
        "farm": 1,
        "title": "people",
        "ispublic": 1,
        "isfriend": 0,
        "isfamily": 0
      },
      {
        "id": "9587300266",
        "owner": "56052306@N06",
        "secret": "461969e0f8",
        "server": "7299",
        "farm": 8,
        "title": "Deb",
        "ispublic": 1,
        "isfriend": 0,
        "isfamily": 0
      },
      {
        "id": "7607853900",
        "owner": "9298216@N08",
        "secret": "26e0a8243e",
        "server": "8020",
        "farm": 9,
        "title": "Big bubble, London",
        "ispublic": 1,
        "isfriend": 0,
        "isfamily": 0
      },
      {
        "id": "14331340737",
        "owner": "81213601@N04",
        "secret": "5fc0014060",
        "server": "2921",
        "farm": 3,
        "title": "cookie",
        "ispublic": 1,
        "isfriend": 0,
        "isfamily": 0
      },
      {
        "id": "6288439490",
        "owner": "8312925@N04",
        "secret": "df528fdf23",
        "server": "6058",
        "farm": 7,
        "title": "alesha",
        "ispublic": 1,
        "isfriend": 0,
        "isfamily": 0
      },
      {
        "id": "5588484318",
        "owner": "47798300@N00",
        "secret": "8686d5ed03",
        "server": "5180",
        "farm": 6,
        "title": "People",
        "ispublic": 1,
        "isfriend": 0,
        "isfamily": 0
      },
      {
        "id": "7563503684",
        "owner": "23557463@N05",
        "secret": "4530cfb954",
        "server": "8002",
        "farm": 9,
        "title": "People at EuroPython 2012",
        "ispublic": 1,
        "isfriend": 0,
        "isfamily": 0
      },
      {
        "id": "6343771739",
        "owner": "69709778@N03",
        "secret": "a0e184af19",
        "server": "6230",
        "farm": 7,
        "title": "People",
        "ispublic": 1,
        "isfriend": 0,
        "isfamily": 0
      },
      {
        "id": "13924365194",
        "owner": "39746512@N05",
        "secret": "59cea52ffd",
        "server": "3705",
        "farm": 4,
        "title": "anonymous people",
        "ispublic": 1,
        "isfriend": 0,
        "isfamily": 0
      },
      {
        "id": "5587881431",
        "owner": "47798300@N00",
        "secret": "48ed78ab88",
        "server": "5145",
        "farm": 6,
        "title": "People",
        "ispublic": 1,
        "isfriend": 0,
        "isfamily": 0
      }
    ]
  },
  "stat": "ok"
}
